SURE 2024 - Data visualization: the grammar of graphics and ggplot2
…
decrease number of rows and increase number of columns

Some terminology

Predecessors: reshape and reshape2

Pivoting

yearly_batting |> 
  select(yearID, HRs = total_hr, Strikeouts = total_so, Walks = total_bb) |> # renaming while also selecting
  pivot_longer(HRs:Walks, # can also do !yearID (to select everything but yearID)
               names_to = "stat",
               values_to = "val")

# A tibble: 441 × 3
   yearID stat         val
    <int> <chr>      <int>
 1   1876 HRs           40
 2   1876 Strikeouts   589
 3   1876 Walks        336
 4   1877 HRs           24
 5   1877 Strikeouts   726
 6   1877 Walks        345
 7   1878 HRs           23
 8   1878 Strikeouts  1081
 9   1878 Walks        364
10   1879 HRs           58
# ℹ 431 more rows
…
