SURE 2024 - Simulation
…
z_ecdf <- ecdf(z)
z_ecdf(0) # should get close to 1/2

[1] 0.476

class(z_ecdf)

[1] "ecdf"     "stepfun"  "function"

normal_tbl <- tibble(z = sort(z)) |> 
  mutate(empirical = z_ecdf(z),
         true = pnorm(z))
normal_tbl

# A tibble: 1,000 × 3
       z empirical    true
   <dbl>     <dbl>   <dbl>
 1 -2.98     0.001 0.00143
 2 -2.67     0.002 0.00374
 3 -2.66     0.003 0.00395
 4 -2.60     0.004 0.00465
 5 -2.53     0.005 0.00576
 6 -2.51     0.006 0.00601
 7 -2.46     0.007 0.00687
 8 -2.44     0.008 0.00736
 9 -2.37     0.009 0.00889
10 -2.34     0.01  0.00954
# ℹ 990 more rows
…
