Supervised learning: multinomial classification
…
# maxit = 300: provide a sufficient number of steps for model fitting
# summary(ep_model)

In the summary, notice the usual type of output, including coefficient estimates for every next scoring event, except for the reference level No_Score

Obtain probabilities for each categories

library(broom)
event_prob <- ep_model |> 
  predict(newdata = nfl_pbp, type = "probs") |> 
  as_tibble() |> 
  mutate(ep = Touchdown * 7 + Field_Goal * 3 + Safety * 2 + Opp_Touchdown * -7 + Opp_Field_Goal * -3 + Opp_Safety * -2)
event_prob

# A tibble: 421,689 × 8
   No_Score Field_Goal Opp_Field_Goal Opp_Safety Opp_Touchdown  Safety Touchdown
      <dbl>      <dbl>          <dbl>      <dbl>         <dbl>   <dbl>     <dbl>
 1 0.000944      0.191         0.169   0.00630          0.302  0.00415     0.326
 2 0.00102       0.188         0.164   0.00433          0.284  0.00434     0.354
 3 0.00116       0.153         0.180   0.00459          0.301  0.00490     0.356
 4 0.00128       0.232         0.136   0.00259          0.234  0.00415     0.391
 5 0.000787      0.297         0.0709  0.000295         0.118  0.00378     0.509
 6 0.000871      0.317         0.0844  0.000513         0.144  0.00439     0.449
 7 0.00110       0.350         0.0990  0.000686         0.169  0.00483     0.375
 8 0.000780      0.321         0.0476  0.0000898        0.0768 0.00334     0.550
 9 0.000875      0.355         0.0563  0.000175         0.0941 0.00397     0.489
10 0.000570      0.338         0.0291  0.0000221        0.0459 0.00284     0.583
# ℹ 421,679 more rows
# ℹ 1 more variable: ep <dbl>
…
